{
  "name": "defaulter",
  "repository": "sashahart/defaulter",
  "description": "",
  "version": "0.0.1",
  "keywords": [
      "default"
  ],
  "dependencies": {
  },
  "development": {
  },
  "license": "MIT",
  "main": "defaulter.js",
  "scripts": [
    "defaulter.js"
  ]
}
